{
    "key": "group_55807a1414c92",
    "title": "Home Page Spotlight",
    "fields": [
        {
            "key": "field_55807a3a6dcce",
            "label": "Spotlight Title",
            "name": "home_spotlight_title",
            "type": "text",
            "instructions": "Enter a new title for the \"spotlight\" if wanted\/needed.",
            "required": 0,
            "conditional_logic": 0,
            "wrapper": {
                "width": "",
                "class": "",
                "id": ""
            },
            "default_value": "Landmark Spotlight",
            "placeholder": "",
            "prepend": "",
            "append": "",
            "maxlength": "",
            "readonly": 0,
            "disabled": 0
        },
        {
            "key": "field_55807aa86dccf",
            "label": "Text Content \/ Description",
            "name": "home_spotlgiht_description",
            "type": "textarea",
            "instructions": "Enter some body copy. Paragraphs will be added automatically. Basic HTML tags are allowed. KEEP IT SHORT!",
            "required": 0,
            "conditional_logic": 0,
            "wrapper": {
                "width": "",
                "class": "",
                "id": ""
            },
            "default_value": "",
            "placeholder": "",
            "maxlength": "",
            "rows": 2,
            "new_lines": "wpautop",
            "readonly": 0,
            "disabled": 0
        },
        {
            "key": "field_55807aef6dcd0",
            "label": "Show an image, video, or embed carousel?",
            "name": "home_spotlight_media",
            "type": "radio",
            "instructions": "",
            "required": 0,
            "conditional_logic": 0,
            "wrapper": {
                "width": "",
                "class": "",
                "id": ""
            },
            "choices": {
                "image": "Image",
                "video": "Video",
                "carousel": "Carousel"
            },
            "allow_null": 0,
            "other_choice": 0,
            "save_other_choice": 0,
            "default_value": "",
            "layout": "vertical",
            "return_format": "value"
        },
        {
            "key": "field_55807b2f6dcd1",
            "label": "Spotlight Image",
            "name": "home_spotlight_image",
            "type": "image",
            "instructions": "",
            "required": 0,
            "conditional_logic": [
                [
                    {
                        "field": "field_55807aef6dcd0",
                        "operator": "==",
                        "value": "image"
                    }
                ]
            ],
            "wrapper": {
                "width": "",
                "class": "",
                "id": ""
            },
            "return_format": "array",
            "preview_size": "thumbnail",
            "library": "all",
            "min_width": "",
            "min_height": "",
            "min_size": "",
            "max_width": "",
            "max_height": "",
            "max_size": "",
            "mime_types": ""
        },
        {
            "key": "field_55807b536dcd2",
            "label": "Spotlight Video",
            "name": "home_spotlight_video",
            "type": "oembed",
            "instructions": "Paste in the Vimeo\/YouTube URL here. A preview of the video will appear when you enter the correct URL.",
            "required": 0,
            "conditional_logic": [
                [
                    {
                        "field": "field_55807aef6dcd0",
                        "operator": "==",
                        "value": "video"
                    }
                ]
            ],
            "wrapper": {
                "width": "",
                "class": "",
                "id": ""
            },
            "width": "",
            "height": ""
        },
        {
            "key": "field_59b80f1da3de5",
            "label": "Spotlight Carousel",
            "name": "home_spotlight_carousel",
            "type": "repeater",
            "instructions": "Add a new embed and then paste the embed code from the 3rd party provider in the text box below.",
            "required": 1,
            "conditional_logic": [
                [
                    {
                        "field": "field_55807aef6dcd0",
                        "operator": "==",
                        "value": "carousel"
                    }
                ]
            ],
            "wrapper": {
                "width": "",
                "class": "",
                "id": ""
            },
            "collapsed": "",
            "min": 0,
            "max": 0,
            "layout": "row",
            "button_label": "Add Embed",
            "sub_fields": [
                {
                    "key": "field_59b80f57a3de6",
                    "label": "Embed",
                    "name": "embed",
                    "type": "textarea",
                    "instructions": "Paste the embed code here.",
                    "required": 1,
                    "conditional_logic": 0,
                    "wrapper": {
                        "width": "",
                        "class": "",
                        "id": ""
                    },
                    "default_value": "",
                    "placeholder": "",
                    "maxlength": "",
                    "rows": "",
                    "new_lines": ""
                }
            ]
        }
    ],
    "location": [
        [
            {
                "param": "page",
                "operator": "==",
                "value": "107"
            }
        ]
    ],
    "menu_order": 10,
    "position": "normal",
    "style": "default",
    "label_placement": "top",
    "instruction_placement": "label",
    "hide_on_screen": "",
    "active": 1,
    "description": "",
    "modified": 1505234839
}