<svg viewBox="0 0 26 26" version="1.1">
    <g stroke="none" stroke-width="1" fill="none" fill-rule="evenodd" >
        <g transform="translate(-775.000000, -1352.000000)" fill="#6D6E71">
                <path d="M782.373,1368.9531 C782.435,1369.0011 782.491,1369.0601 782.56,1369.0991 C786.674,1371.3781 791.841,1369.1891 793.018,1364.6321 C793.335,1363.4021 793.334,1362.0701 794.543,1361.0711 C794.105,1361.1861 793.797,1361.2671 793.394,1361.3751 C793.696,1360.9231 793.947,1360.5491 794.197,1360.1771 C794.001,1360.1301 793.906,1360.1621 793.816,1360.2051 C793.151,1360.5331 792.586,1360.5801 791.862,1360.1311 C790.301,1359.1631 788.246,1360.4461 788.184,1362.3341 C788.178,1362.5321 788.184,1362.7301 788.184,1362.9401 C786.045,1362.7931 784.418,1361.8021 783.002,1360.2621 C782.434,1361.5431 782.653,1362.6171 783.629,1363.6661 C783.181,1363.5821 782.914,1363.5321 782.623,1363.4791 C782.74,1364.7001 783.393,1365.4481 784.5,1365.9941 C784.099,1366.0221 783.873,1366.0371 783.562,1366.0581 C783.941,1367.1111 784.774,1367.5291 785.775,1367.8591 C784.721,1368.6191 783.602,1368.8481 782.373,1368.9531 M775.499,1364.8971 C775.494,1357.9171 781.129,1352.2691 788.123,1352.2441 C795.133,1352.2191 800.848,1357.8851 800.855,1364.8641 C800.863,1371.8871 795.169,1377.5981 788.155,1377.5991 C781.172,1377.6011 775.504,1371.9121 775.499,1364.8971" id="Fill-133"></path>
        </g>
    </g>
</svg>